<?xml version="1.0" encoding="UTF-8" standalone="no"?>
<!-- Created with Inkscape (http://www.inkscape.org/) -->

<svg
   xmlns:dc="http://purl.org/dc/elements/1.1/"
   xmlns:cc="http://creativecommons.org/ns#"
   xmlns:rdf="http://www.w3.org/1999/02/22-rdf-syntax-ns#"
   xmlns:svg="http://www.w3.org/2000/svg"
   xmlns="http://www.w3.org/2000/svg"
   xmlns:sodipodi="http://sodipodi.sourceforge.net/DTD/sodipodi-0.dtd"
   xmlns:inkscape="http://www.inkscape.org/namespaces/inkscape"
   width="114.99999mm"
   height="38.553963mm"
   viewBox="0 0 114.99998 38.553963"
   version="1.1"
   id="svg8"
   inkscape:version="0.92+devel unknown"
   sodipodi:docname="example_dockerfile.svg">
  <defs
     id="defs2" />
  <sodipodi:namedview
     id="base"
     pagecolor="#ffffff"
     bordercolor="#666666"
     borderopacity="1.0"
     inkscape:pageopacity="0.0"
     inkscape:pageshadow="2"
     inkscape:zoom="2.2206185"
     inkscape:cx="274.39042"
     inkscape:cy="91.390416"
     inkscape:document-units="mm"
     inkscape:current-layer="layer1"
     showgrid="false"
     units="mm"
     showborder="false"
     inkscape:window-width="1920"
     inkscape:window-height="1016"
     inkscape:window-x="0"
     inkscape:window-y="0"
     inkscape:window-maximized="1"
     showguides="true"
     inkscape:guide-bbox="true"
     inkscape:document-rotation="0">
    <sodipodi:guide
       position="76.180103,50.274173"
       orientation="1,0"
       id="guide6424"
       inkscape:locked="false" />
    <sodipodi:guide
       position="153.04156,0.26792344"
       orientation="1,0"
       id="guide13635"
       inkscape:locked="false" />
  </sodipodi:namedview>
  <metadata
     id="metadata5">
    <rdf:RDF>
      <cc:Work
         rdf:about="">
        <dc:format>image/svg+xml</dc:format>
        <dc:type
           rdf:resource="http://purl.org/dc/dcmitype/StillImage" />
        <dc:title></dc:title>
      </cc:Work>
    </rdf:RDF>
  </metadata>
  <g
     inkscape:label="Vrstva 1"
     inkscape:groupmode="layer"
     id="layer1"
     transform="translate(56.997813,-66.097291)">
    <rect
       style="opacity:1;fill:#333333;fill-opacity:0.99469497;fill-rule:nonzero;stroke:#000000;stroke-width:0.79731548;stroke-linecap:round;stroke-linejoin:round;stroke-miterlimit:100;stroke-dasharray:none;stroke-opacity:1;paint-order:normal"
       id="rect4485-3-6-9-6"
       width="109.34395"
       height="37.744503"
       x="-51.740425"
       y="66.508095" />
    <text
       xml:space="preserve"
       style="font-style:normal;font-variant:normal;font-weight:normal;font-stretch:normal;font-size:2.90630651px;line-height:1.25;font-family:sans-serif;-inkscape-font-specification:'sans-serif, Normal';font-variant-ligatures:normal;font-variant-caps:normal;font-variant-numeric:normal;font-feature-settings:normal;text-align:start;letter-spacing:0px;word-spacing:0px;writing-mode:lr-tb;text-anchor:start;fill:#f9f9f9;fill-opacity:1;stroke:none;stroke-width:0.79731548;stroke-miterlimit:100;stroke-dasharray:none"
       x="-47.488518"
       y="74.134789"
       id="text4506-2-2-7"
       transform="scale(1.0700412,0.93454345)"><tspan
         sodipodi:role="line"
         id="tspan4598"
         x="-47.488518"
         y="74.134789"
         style="stroke-width:0.79731548">FROM fedora:25</tspan><tspan
         sodipodi:role="line"
         x="-47.488518"
         y="77.76767"
         id="tspan1042"
         style="stroke-width:0.79731548">ENV KEY=Hello ANOTHER_KEY=&quot;world !!!&quot;</tspan><tspan
         sodipodi:role="line"
         x="-47.488518"
         y="81.400558"
         id="tspan1044"
         style="stroke-width:0.79731548">RUN echo $KEY $ANOTHER_KEY</tspan><tspan
         sodipodi:role="line"
         x="-47.488518"
         y="85.03344"
         id="tspan1046"
         style="stroke-width:0.79731548">ARG BUILD_ARG=&quot;default value&quot;</tspan><tspan
         sodipodi:role="line"
         x="-47.488518"
         y="88.666321"
         id="tspan1048"
         style="stroke-width:0.79731548">ARG ANOTHER_BUILD_ARG</tspan><tspan
         sodipodi:role="line"
         x="-47.488518"
         y="92.299202"
         id="tspan1050"
         style="stroke-width:0.79731548">RUN touch /tmp/$BUILD_ARG &amp;&amp; touch /tmp/$ANOTHER_BUILD_ARG</tspan><tspan
         sodipodi:role="line"
         x="-47.488518"
         y="95.932091"
         id="tspan1052"
         style="stroke-width:0.79731548">COPY . /tmp/files/</tspan><tspan
         sodipodi:role="line"
         x="-47.488518"
         y="99.564972"
         id="tspan1054"
         style="stroke-width:0.79731548">ADD archive.tar /tmp/archive/</tspan><tspan
         sodipodi:role="line"
         x="-47.488518"
         y="103.19785"
         id="tspan1056"
         style="stroke-width:0.79731548">RUN ls -l /tmp/*</tspan><tspan
         sodipodi:role="line"
         x="-47.488518"
         y="106.83073"
         id="tspan1058"
         style="stroke-width:0.79731548">EXPOSE 80</tspan><tspan
         sodipodi:role="line"
         x="-47.488518"
         y="110.46362"
         id="tspan1060"
         style="stroke-width:0.79731548">LABEL author_of_the_dockerfile=&quot;my_name &lt;me@mail.example&gt;&quot;</tspan><tspan
         sodipodi:role="line"
         x="-47.488518"
         y="114.0965"
         id="tspan1062"
         style="stroke-width:0.79731548" /></text>
    <rect
       y="66.495949"
       x="-55.030228"
       height="3.4008071"
       width="2.9868233"
       id="rect4737"
       style="opacity:1;fill:#f9f9f9;fill-opacity:0.99469497;fill-rule:nonzero;stroke:#000000;stroke-width:0.79731548;stroke-linecap:round;stroke-linejoin:round;stroke-miterlimit:100;stroke-dasharray:none;stroke-opacity:1;paint-order:normal" />
    <text
       transform="scale(1.0078652,0.99219618)"
       id="text4741"
       y="69.593369"
       x="-53.890903"
       style="font-style:normal;font-variant:normal;font-weight:normal;font-stretch:normal;font-size:2.3611412px;line-height:1.25;font-family:sans-serif;-inkscape-font-specification:'sans-serif, Normal';font-variant-ligatures:normal;font-variant-caps:normal;font-variant-numeric:normal;font-feature-settings:normal;text-align:start;letter-spacing:0px;word-spacing:0px;writing-mode:lr-tb;text-anchor:start;fill:#000000;fill-opacity:1;stroke:none;stroke-width:0.79731554;stroke-miterlimit:100;stroke-dasharray:none"
       xml:space="preserve"><tspan
         style="font-style:normal;font-variant:normal;font-weight:normal;font-stretch:normal;font-size:2.3611412px;font-family:sans-serif;-inkscape-font-specification:'sans-serif, Normal';font-variant-ligatures:normal;font-variant-caps:normal;font-variant-numeric:normal;font-feature-settings:normal;text-align:start;writing-mode:lr-tb;text-anchor:start;stroke-width:0.79731554;stroke-miterlimit:100;stroke-dasharray:none"
         y="69.593369"
         x="-53.890903"
         id="tspan4739"
         sodipodi:role="line">1</tspan></text>
    <text
       xml:space="preserve"
       style="font-style:normal;font-variant:normal;font-weight:normal;font-stretch:normal;font-size:2.3611412px;line-height:1.25;font-family:sans-serif;-inkscape-font-specification:'sans-serif, Normal';font-variant-ligatures:normal;font-variant-caps:normal;font-variant-numeric:normal;font-feature-settings:normal;text-align:start;letter-spacing:0px;word-spacing:0px;writing-mode:lr-tb;text-anchor:start;fill:#000000;fill-opacity:1;stroke:none;stroke-width:0.79731554;stroke-miterlimit:100;stroke-dasharray:none"
       x="-53.890903"
       y="69.593369"
       id="text4757"
       transform="scale(1.0078652,0.99219618)"><tspan
         sodipodi:role="line"
         id="tspan4755"
         x="-53.890903"
         y="69.593369"
         style="font-style:normal;font-variant:normal;font-weight:normal;font-stretch:normal;font-size:2.3611412px;font-family:sans-serif;-inkscape-font-specification:'sans-serif, Normal';font-variant-ligatures:normal;font-variant-caps:normal;font-variant-numeric:normal;font-feature-settings:normal;text-align:start;writing-mode:lr-tb;text-anchor:start;stroke-width:0.79731554;stroke-miterlimit:100;stroke-dasharray:none">1</tspan></text>
    <rect
       style="opacity:1;fill:#f9f9f9;fill-opacity:0.99469497;fill-rule:nonzero;stroke:#000000;stroke-width:0.79731548;stroke-linecap:round;stroke-linejoin:round;stroke-miterlimit:100;stroke-dasharray:none;stroke-opacity:1;paint-order:normal"
       id="rect4759"
       width="2.9868233"
       height="3.4008071"
       x="-55.030228"
       y="66.495949" />
    <text
       xml:space="preserve"
       style="font-style:normal;font-variant:normal;font-weight:normal;font-stretch:normal;font-size:2.3611412px;line-height:1.25;font-family:sans-serif;-inkscape-font-specification:'sans-serif, Normal';font-variant-ligatures:normal;font-variant-caps:normal;font-variant-numeric:normal;font-feature-settings:normal;text-align:start;letter-spacing:0px;word-spacing:0px;writing-mode:lr-tb;text-anchor:start;fill:#000000;fill-opacity:1;stroke:none;stroke-width:0.79731554;stroke-miterlimit:100;stroke-dasharray:none"
       x="-53.890903"
       y="69.593369"
       id="text4763"
       transform="scale(1.0078652,0.99219618)"><tspan
         sodipodi:role="line"
         id="tspan4761"
         x="-53.890903"
         y="69.593369"
         style="font-style:normal;font-variant:normal;font-weight:normal;font-stretch:normal;font-size:2.3611412px;font-family:sans-serif;-inkscape-font-specification:'sans-serif, Normal';font-variant-ligatures:normal;font-variant-caps:normal;font-variant-numeric:normal;font-feature-settings:normal;text-align:start;writing-mode:lr-tb;text-anchor:start;stroke-width:0.79731554;stroke-miterlimit:100;stroke-dasharray:none">1</tspan></text>
    <text
       transform="scale(1.0078652,0.99219618)"
       id="text4767"
       y="69.593369"
       x="-53.890903"
       style="font-style:normal;font-variant:normal;font-weight:normal;font-stretch:normal;font-size:2.3611412px;line-height:1.25;font-family:sans-serif;-inkscape-font-specification:'sans-serif, Normal';font-variant-ligatures:normal;font-variant-caps:normal;font-variant-numeric:normal;font-feature-settings:normal;text-align:start;letter-spacing:0px;word-spacing:0px;writing-mode:lr-tb;text-anchor:start;fill:#000000;fill-opacity:1;stroke:none;stroke-width:0.79731554;stroke-miterlimit:100;stroke-dasharray:none"
       xml:space="preserve"><tspan
         style="font-style:normal;font-variant:normal;font-weight:normal;font-stretch:normal;font-size:2.3611412px;font-family:sans-serif;-inkscape-font-specification:'sans-serif, Normal';font-variant-ligatures:normal;font-variant-caps:normal;font-variant-numeric:normal;font-feature-settings:normal;text-align:start;writing-mode:lr-tb;text-anchor:start;stroke-width:0.79731554;stroke-miterlimit:100;stroke-dasharray:none"
         y="69.593369"
         x="-53.890903"
         id="tspan4765"
         sodipodi:role="line">1</tspan></text>
    <rect
       style="opacity:1;fill:#f9f9f9;fill-opacity:0.99469497;fill-rule:nonzero;stroke:#000000;stroke-width:0.79731548;stroke-linecap:round;stroke-linejoin:round;stroke-miterlimit:100;stroke-dasharray:none;stroke-opacity:1;paint-order:normal"
       id="rect4799"
       width="2.9868233"
       height="3.4008071"
       x="-55.030228"
       y="69.896759" />
    <text
       xml:space="preserve"
       style="font-style:normal;font-variant:normal;font-weight:normal;font-stretch:normal;font-size:2.3611412px;line-height:1.25;font-family:sans-serif;-inkscape-font-specification:'sans-serif, Normal';font-variant-ligatures:normal;font-variant-caps:normal;font-variant-numeric:normal;font-feature-settings:normal;text-align:start;letter-spacing:0px;word-spacing:0px;writing-mode:lr-tb;text-anchor:start;fill:#000000;fill-opacity:1;stroke:none;stroke-width:0.79731554;stroke-miterlimit:100;stroke-dasharray:none"
       x="-53.890903"
       y="73.020927"
       id="text4803"
       transform="scale(1.0078652,0.99219618)"><tspan
         sodipodi:role="line"
         id="tspan4801"
         x="-53.890903"
         y="73.020927"
         style="font-style:normal;font-variant:normal;font-weight:normal;font-stretch:normal;font-size:2.3611412px;font-family:sans-serif;-inkscape-font-specification:'sans-serif, Normal';font-variant-ligatures:normal;font-variant-caps:normal;font-variant-numeric:normal;font-feature-settings:normal;text-align:start;writing-mode:lr-tb;text-anchor:start;stroke-width:0.79731554;stroke-miterlimit:100;stroke-dasharray:none">1</tspan></text>
    <text
       transform="scale(1.0078652,0.99219618)"
       id="text4807"
       y="73.020927"
       x="-53.890903"
       style="font-style:normal;font-variant:normal;font-weight:normal;font-stretch:normal;font-size:2.3611412px;line-height:1.25;font-family:sans-serif;-inkscape-font-specification:'sans-serif, Normal';font-variant-ligatures:normal;font-variant-caps:normal;font-variant-numeric:normal;font-feature-settings:normal;text-align:start;letter-spacing:0px;word-spacing:0px;writing-mode:lr-tb;text-anchor:start;fill:#000000;fill-opacity:1;stroke:none;stroke-width:0.79731554;stroke-miterlimit:100;stroke-dasharray:none"
       xml:space="preserve"><tspan
         style="font-style:normal;font-variant:normal;font-weight:normal;font-stretch:normal;font-size:2.3611412px;font-family:sans-serif;-inkscape-font-specification:'sans-serif, Normal';font-variant-ligatures:normal;font-variant-caps:normal;font-variant-numeric:normal;font-feature-settings:normal;text-align:start;writing-mode:lr-tb;text-anchor:start;stroke-width:0.79731554;stroke-miterlimit:100;stroke-dasharray:none"
         y="73.020927"
         x="-53.890903"
         id="tspan4805"
         sodipodi:role="line">1</tspan></text>
    <rect
       y="69.896759"
       x="-55.030228"
       height="3.4008071"
       width="2.9868233"
       id="rect4809"
       style="opacity:1;fill:#f9f9f9;fill-opacity:0.99469497;fill-rule:nonzero;stroke:#000000;stroke-width:0.79731548;stroke-linecap:round;stroke-linejoin:round;stroke-miterlimit:100;stroke-dasharray:none;stroke-opacity:1;paint-order:normal" />
    <text
       transform="scale(1.0078652,0.99219618)"
       id="text4813"
       y="73.020927"
       x="-53.890903"
       style="font-style:normal;font-variant:normal;font-weight:normal;font-stretch:normal;font-size:2.3611412px;line-height:1.25;font-family:sans-serif;-inkscape-font-specification:'sans-serif, Normal';font-variant-ligatures:normal;font-variant-caps:normal;font-variant-numeric:normal;font-feature-settings:normal;text-align:start;letter-spacing:0px;word-spacing:0px;writing-mode:lr-tb;text-anchor:start;fill:#000000;fill-opacity:1;stroke:none;stroke-width:0.79731554;stroke-miterlimit:100;stroke-dasharray:none"
       xml:space="preserve"><tspan
         style="font-style:normal;font-variant:normal;font-weight:normal;font-stretch:normal;font-size:2.3611412px;font-family:sans-serif;-inkscape-font-specification:'sans-serif, Normal';font-variant-ligatures:normal;font-variant-caps:normal;font-variant-numeric:normal;font-feature-settings:normal;text-align:start;writing-mode:lr-tb;text-anchor:start;stroke-width:0.79731554;stroke-miterlimit:100;stroke-dasharray:none"
         y="73.020927"
         x="-53.890903"
         id="tspan4811"
         sodipodi:role="line">2</tspan></text>
    <text
       xml:space="preserve"
       style="font-style:normal;font-variant:normal;font-weight:normal;font-stretch:normal;font-size:2.60277724px;line-height:1.25;font-family:sans-serif;-inkscape-font-specification:'sans-serif, Normal';font-variant-ligatures:normal;font-variant-caps:normal;font-variant-numeric:normal;font-feature-settings:normal;text-align:start;letter-spacing:0px;word-spacing:0px;writing-mode:lr-tb;text-anchor:start;fill:#000000;fill-opacity:1;stroke:none;stroke-width:0.79731554;stroke-miterlimit:100;stroke-dasharray:none"
       x="-53.84864"
       y="73.635162"
       id="text4817"
       transform="scale(1.0078652,0.99219618)"><tspan
         sodipodi:role="line"
         id="tspan4815"
         x="-53.84864"
         y="75.938011"
         style="font-style:normal;font-variant:normal;font-weight:normal;font-stretch:normal;font-size:2.60277724px;font-family:sans-serif;-inkscape-font-specification:'sans-serif, Normal';font-variant-ligatures:normal;font-variant-caps:normal;font-variant-numeric:normal;font-feature-settings:normal;text-align:start;writing-mode:lr-tb;text-anchor:start;stroke-width:0.79731554;stroke-miterlimit:100;stroke-dasharray:none" /></text>
    <rect
       y="73.297569"
       x="-55.030228"
       height="3.4008071"
       width="2.9868233"
       id="rect4819"
       style="opacity:1;fill:#f9f9f9;fill-opacity:0.99469497;fill-rule:nonzero;stroke:#000000;stroke-width:0.79731548;stroke-linecap:round;stroke-linejoin:round;stroke-miterlimit:100;stroke-dasharray:none;stroke-opacity:1;paint-order:normal" />
    <text
       transform="scale(1.0078652,0.99219618)"
       id="text4823"
       y="76.448486"
       x="-53.890903"
       style="font-style:normal;font-variant:normal;font-weight:normal;font-stretch:normal;font-size:2.3611412px;line-height:1.25;font-family:sans-serif;-inkscape-font-specification:'sans-serif, Normal';font-variant-ligatures:normal;font-variant-caps:normal;font-variant-numeric:normal;font-feature-settings:normal;text-align:start;letter-spacing:0px;word-spacing:0px;writing-mode:lr-tb;text-anchor:start;fill:#000000;fill-opacity:1;stroke:none;stroke-width:0.79731554;stroke-miterlimit:100;stroke-dasharray:none"
       xml:space="preserve"><tspan
         style="font-style:normal;font-variant:normal;font-weight:normal;font-stretch:normal;font-size:2.3611412px;font-family:sans-serif;-inkscape-font-specification:'sans-serif, Normal';font-variant-ligatures:normal;font-variant-caps:normal;font-variant-numeric:normal;font-feature-settings:normal;text-align:start;writing-mode:lr-tb;text-anchor:start;stroke-width:0.79731554;stroke-miterlimit:100;stroke-dasharray:none"
         y="76.448486"
         x="-53.890903"
         id="tspan4821"
         sodipodi:role="line">1</tspan></text>
    <text
       xml:space="preserve"
       style="font-style:normal;font-variant:normal;font-weight:normal;font-stretch:normal;font-size:2.3611412px;line-height:1.25;font-family:sans-serif;-inkscape-font-specification:'sans-serif, Normal';font-variant-ligatures:normal;font-variant-caps:normal;font-variant-numeric:normal;font-feature-settings:normal;text-align:start;letter-spacing:0px;word-spacing:0px;writing-mode:lr-tb;text-anchor:start;fill:#000000;fill-opacity:1;stroke:none;stroke-width:0.79731554;stroke-miterlimit:100;stroke-dasharray:none"
       x="-53.890903"
       y="76.448486"
       id="text4827"
       transform="scale(1.0078652,0.99219618)"><tspan
         sodipodi:role="line"
         id="tspan4825"
         x="-53.890903"
         y="76.448486"
         style="font-style:normal;font-variant:normal;font-weight:normal;font-stretch:normal;font-size:2.3611412px;font-family:sans-serif;-inkscape-font-specification:'sans-serif, Normal';font-variant-ligatures:normal;font-variant-caps:normal;font-variant-numeric:normal;font-feature-settings:normal;text-align:start;writing-mode:lr-tb;text-anchor:start;stroke-width:0.79731554;stroke-miterlimit:100;stroke-dasharray:none">1</tspan></text>
    <rect
       style="opacity:1;fill:#f9f9f9;fill-opacity:0.99469497;fill-rule:nonzero;stroke:#000000;stroke-width:0.79731548;stroke-linecap:round;stroke-linejoin:round;stroke-miterlimit:100;stroke-dasharray:none;stroke-opacity:1;paint-order:normal"
       id="rect4829"
       width="2.9868233"
       height="3.4008071"
       x="-55.030228"
       y="73.297569" />
    <text
       xml:space="preserve"
       style="font-style:normal;font-variant:normal;font-weight:normal;font-stretch:normal;font-size:2.3611412px;line-height:1.25;font-family:sans-serif;-inkscape-font-specification:'sans-serif, Normal';font-variant-ligatures:normal;font-variant-caps:normal;font-variant-numeric:normal;font-feature-settings:normal;text-align:start;letter-spacing:0px;word-spacing:0px;writing-mode:lr-tb;text-anchor:start;fill:#000000;fill-opacity:1;stroke:none;stroke-width:0.79731554;stroke-miterlimit:100;stroke-dasharray:none"
       x="-53.890903"
       y="76.448486"
       id="text4833"
       transform="scale(1.0078652,0.99219618)"><tspan
         sodipodi:role="line"
         id="tspan4831"
         x="-53.890903"
         y="76.448486"
         style="font-style:normal;font-variant:normal;font-weight:normal;font-stretch:normal;font-size:2.3611412px;font-family:sans-serif;-inkscape-font-specification:'sans-serif, Normal';font-variant-ligatures:normal;font-variant-caps:normal;font-variant-numeric:normal;font-feature-settings:normal;text-align:start;writing-mode:lr-tb;text-anchor:start;stroke-width:0.79731554;stroke-miterlimit:100;stroke-dasharray:none">3</tspan></text>
    <text
       transform="scale(1.0078652,0.99219618)"
       id="text4837"
       y="77.41349"
       x="-53.84864"
       style="font-style:normal;font-variant:normal;font-weight:normal;font-stretch:normal;font-size:2.60277724px;line-height:1.25;font-family:sans-serif;-inkscape-font-specification:'sans-serif, Normal';font-variant-ligatures:normal;font-variant-caps:normal;font-variant-numeric:normal;font-feature-settings:normal;text-align:start;letter-spacing:0px;word-spacing:0px;writing-mode:lr-tb;text-anchor:start;fill:#000000;fill-opacity:1;stroke:none;stroke-width:0.79731554;stroke-miterlimit:100;stroke-dasharray:none"
       xml:space="preserve"><tspan
         style="font-style:normal;font-variant:normal;font-weight:normal;font-stretch:normal;font-size:2.60277724px;font-family:sans-serif;-inkscape-font-specification:'sans-serif, Normal';font-variant-ligatures:normal;font-variant-caps:normal;font-variant-numeric:normal;font-feature-settings:normal;text-align:start;writing-mode:lr-tb;text-anchor:start;stroke-width:0.79731554;stroke-miterlimit:100;stroke-dasharray:none"
         y="79.716339"
         x="-53.84864"
         id="tspan4835"
         sodipodi:role="line" /></text>
    <rect
       style="opacity:1;fill:#f9f9f9;fill-opacity:0.99469497;fill-rule:nonzero;stroke:#000000;stroke-width:0.79731548;stroke-linecap:round;stroke-linejoin:round;stroke-miterlimit:100;stroke-dasharray:none;stroke-opacity:1;paint-order:normal"
       id="rect4839"
       width="2.9868233"
       height="3.4008071"
       x="-55.030228"
       y="76.698372" />
    <text
       xml:space="preserve"
       style="font-style:normal;font-variant:normal;font-weight:normal;font-stretch:normal;font-size:2.3611412px;line-height:1.25;font-family:sans-serif;-inkscape-font-specification:'sans-serif, Normal';font-variant-ligatures:normal;font-variant-caps:normal;font-variant-numeric:normal;font-feature-settings:normal;text-align:start;letter-spacing:0px;word-spacing:0px;writing-mode:lr-tb;text-anchor:start;fill:#000000;fill-opacity:1;stroke:none;stroke-width:0.79731554;stroke-miterlimit:100;stroke-dasharray:none"
       x="-53.890903"
       y="79.876045"
       id="text4843"
       transform="scale(1.0078652,0.99219618)"><tspan
         sodipodi:role="line"
         id="tspan4841"
         x="-53.890903"
         y="79.876045"
         style="font-style:normal;font-variant:normal;font-weight:normal;font-stretch:normal;font-size:2.3611412px;font-family:sans-serif;-inkscape-font-specification:'sans-serif, Normal';font-variant-ligatures:normal;font-variant-caps:normal;font-variant-numeric:normal;font-feature-settings:normal;text-align:start;writing-mode:lr-tb;text-anchor:start;stroke-width:0.79731554;stroke-miterlimit:100;stroke-dasharray:none">1</tspan></text>
    <text
       transform="scale(1.0078652,0.99219618)"
       id="text4847"
       y="79.876045"
       x="-53.890903"
       style="font-style:normal;font-variant:normal;font-weight:normal;font-stretch:normal;font-size:2.3611412px;line-height:1.25;font-family:sans-serif;-inkscape-font-specification:'sans-serif, Normal';font-variant-ligatures:normal;font-variant-caps:normal;font-variant-numeric:normal;font-feature-settings:normal;text-align:start;letter-spacing:0px;word-spacing:0px;writing-mode:lr-tb;text-anchor:start;fill:#000000;fill-opacity:1;stroke:none;stroke-width:0.79731554;stroke-miterlimit:100;stroke-dasharray:none"
       xml:space="preserve"><tspan
         style="font-style:normal;font-variant:normal;font-weight:normal;font-stretch:normal;font-size:2.3611412px;font-family:sans-serif;-inkscape-font-specification:'sans-serif, Normal';font-variant-ligatures:normal;font-variant-caps:normal;font-variant-numeric:normal;font-feature-settings:normal;text-align:start;writing-mode:lr-tb;text-anchor:start;stroke-width:0.79731554;stroke-miterlimit:100;stroke-dasharray:none"
         y="79.876045"
         x="-53.890903"
         id="tspan4845"
         sodipodi:role="line">1</tspan></text>
    <rect
       y="76.698372"
       x="-55.030228"
       height="3.4008071"
       width="2.9868233"
       id="rect4849"
       style="opacity:1;fill:#f9f9f9;fill-opacity:0.99469497;fill-rule:nonzero;stroke:#000000;stroke-width:0.79731548;stroke-linecap:round;stroke-linejoin:round;stroke-miterlimit:100;stroke-dasharray:none;stroke-opacity:1;paint-order:normal" />
    <text
       transform="scale(1.0078652,0.99219618)"
       id="text4853"
       y="79.876045"
       x="-53.890903"
       style="font-style:normal;font-variant:normal;font-weight:normal;font-stretch:normal;font-size:2.3611412px;line-height:1.25;font-family:sans-serif;-inkscape-font-specification:'sans-serif, Normal';font-variant-ligatures:normal;font-variant-caps:normal;font-variant-numeric:normal;font-feature-settings:normal;text-align:start;letter-spacing:0px;word-spacing:0px;writing-mode:lr-tb;text-anchor:start;fill:#000000;fill-opacity:1;stroke:none;stroke-width:0.79731554;stroke-miterlimit:100;stroke-dasharray:none"
       xml:space="preserve"><tspan
         style="font-style:normal;font-variant:normal;font-weight:normal;font-stretch:normal;font-size:2.3611412px;font-family:sans-serif;-inkscape-font-specification:'sans-serif, Normal';font-variant-ligatures:normal;font-variant-caps:normal;font-variant-numeric:normal;font-feature-settings:normal;text-align:start;writing-mode:lr-tb;text-anchor:start;stroke-width:0.79731554;stroke-miterlimit:100;stroke-dasharray:none"
         y="79.876045"
         x="-53.890903"
         id="tspan4851"
         sodipodi:role="line">4</tspan></text>
    <text
       xml:space="preserve"
       style="font-style:normal;font-variant:normal;font-weight:normal;font-stretch:normal;font-size:2.60277724px;line-height:1.25;font-family:sans-serif;-inkscape-font-specification:'sans-serif, Normal';font-variant-ligatures:normal;font-variant-caps:normal;font-variant-numeric:normal;font-feature-settings:normal;text-align:start;letter-spacing:0px;word-spacing:0px;writing-mode:lr-tb;text-anchor:start;fill:#000000;fill-opacity:1;stroke:none;stroke-width:0.79731554;stroke-miterlimit:100;stroke-dasharray:none"
       x="-53.84864"
       y="81.191818"
       id="text4857"
       transform="scale(1.0078652,0.99219618)"><tspan
         sodipodi:role="line"
         id="tspan4855"
         x="-53.84864"
         y="83.494667"
         style="font-style:normal;font-variant:normal;font-weight:normal;font-stretch:normal;font-size:2.60277724px;font-family:sans-serif;-inkscape-font-specification:'sans-serif, Normal';font-variant-ligatures:normal;font-variant-caps:normal;font-variant-numeric:normal;font-feature-settings:normal;text-align:start;writing-mode:lr-tb;text-anchor:start;stroke-width:0.79731554;stroke-miterlimit:100;stroke-dasharray:none" /></text>
    <rect
       y="80.09919"
       x="-55.030228"
       height="3.4008071"
       width="2.9868233"
       id="rect4859"
       style="opacity:1;fill:#f9f9f9;fill-opacity:0.99469497;fill-rule:nonzero;stroke:#000000;stroke-width:0.79731548;stroke-linecap:round;stroke-linejoin:round;stroke-miterlimit:100;stroke-dasharray:none;stroke-opacity:1;paint-order:normal" />
    <text
       transform="scale(1.0078652,0.99219618)"
       id="text4863"
       y="83.303596"
       x="-53.890903"
       style="font-style:normal;font-variant:normal;font-weight:normal;font-stretch:normal;font-size:2.3611412px;line-height:1.25;font-family:sans-serif;-inkscape-font-specification:'sans-serif, Normal';font-variant-ligatures:normal;font-variant-caps:normal;font-variant-numeric:normal;font-feature-settings:normal;text-align:start;letter-spacing:0px;word-spacing:0px;writing-mode:lr-tb;text-anchor:start;fill:#000000;fill-opacity:1;stroke:none;stroke-width:0.79731554;stroke-miterlimit:100;stroke-dasharray:none"
       xml:space="preserve"><tspan
         style="font-style:normal;font-variant:normal;font-weight:normal;font-stretch:normal;font-size:2.3611412px;font-family:sans-serif;-inkscape-font-specification:'sans-serif, Normal';font-variant-ligatures:normal;font-variant-caps:normal;font-variant-numeric:normal;font-feature-settings:normal;text-align:start;writing-mode:lr-tb;text-anchor:start;stroke-width:0.79731554;stroke-miterlimit:100;stroke-dasharray:none"
         y="83.303596"
         x="-53.890903"
         id="tspan4861"
         sodipodi:role="line">1</tspan></text>
    <text
       xml:space="preserve"
       style="font-style:normal;font-variant:normal;font-weight:normal;font-stretch:normal;font-size:2.3611412px;line-height:1.25;font-family:sans-serif;-inkscape-font-specification:'sans-serif, Normal';font-variant-ligatures:normal;font-variant-caps:normal;font-variant-numeric:normal;font-feature-settings:normal;text-align:start;letter-spacing:0px;word-spacing:0px;writing-mode:lr-tb;text-anchor:start;fill:#000000;fill-opacity:1;stroke:none;stroke-width:0.79731554;stroke-miterlimit:100;stroke-dasharray:none"
       x="-53.890903"
       y="83.303596"
       id="text4867"
       transform="scale(1.0078652,0.99219618)"><tspan
         sodipodi:role="line"
         id="tspan4865"
         x="-53.890903"
         y="83.303596"
         style="font-style:normal;font-variant:normal;font-weight:normal;font-stretch:normal;font-size:2.3611412px;font-family:sans-serif;-inkscape-font-specification:'sans-serif, Normal';font-variant-ligatures:normal;font-variant-caps:normal;font-variant-numeric:normal;font-feature-settings:normal;text-align:start;writing-mode:lr-tb;text-anchor:start;stroke-width:0.79731554;stroke-miterlimit:100;stroke-dasharray:none">1</tspan></text>
    <rect
       style="opacity:1;fill:#f9f9f9;fill-opacity:0.99469497;fill-rule:nonzero;stroke:#000000;stroke-width:0.79731548;stroke-linecap:round;stroke-linejoin:round;stroke-miterlimit:100;stroke-dasharray:none;stroke-opacity:1;paint-order:normal"
       id="rect4869"
       width="2.9868233"
       height="3.4008071"
       x="-55.030228"
       y="80.09919" />
    <text
       xml:space="preserve"
       style="font-style:normal;font-variant:normal;font-weight:normal;font-stretch:normal;font-size:2.3611412px;line-height:1.25;font-family:sans-serif;-inkscape-font-specification:'sans-serif, Normal';font-variant-ligatures:normal;font-variant-caps:normal;font-variant-numeric:normal;font-feature-settings:normal;text-align:start;letter-spacing:0px;word-spacing:0px;writing-mode:lr-tb;text-anchor:start;fill:#000000;fill-opacity:1;stroke:none;stroke-width:0.79731554;stroke-miterlimit:100;stroke-dasharray:none"
       x="-53.890903"
       y="83.303596"
       id="text4873"
       transform="scale(1.0078652,0.99219618)"><tspan
         sodipodi:role="line"
         id="tspan4871"
         x="-53.890903"
         y="83.303596"
         style="font-style:normal;font-variant:normal;font-weight:normal;font-stretch:normal;font-size:2.3611412px;font-family:sans-serif;-inkscape-font-specification:'sans-serif, Normal';font-variant-ligatures:normal;font-variant-caps:normal;font-variant-numeric:normal;font-feature-settings:normal;text-align:start;writing-mode:lr-tb;text-anchor:start;stroke-width:0.79731554;stroke-miterlimit:100;stroke-dasharray:none">5</tspan></text>
    <text
       transform="scale(1.0078652,0.99219618)"
       id="text4877"
       y="84.970146"
       x="-53.84864"
       style="font-style:normal;font-variant:normal;font-weight:normal;font-stretch:normal;font-size:2.60277724px;line-height:1.25;font-family:sans-serif;-inkscape-font-specification:'sans-serif, Normal';font-variant-ligatures:normal;font-variant-caps:normal;font-variant-numeric:normal;font-feature-settings:normal;text-align:start;letter-spacing:0px;word-spacing:0px;writing-mode:lr-tb;text-anchor:start;fill:#000000;fill-opacity:1;stroke:none;stroke-width:0.79731554;stroke-miterlimit:100;stroke-dasharray:none"
       xml:space="preserve"><tspan
         style="font-style:normal;font-variant:normal;font-weight:normal;font-stretch:normal;font-size:2.60277724px;font-family:sans-serif;-inkscape-font-specification:'sans-serif, Normal';font-variant-ligatures:normal;font-variant-caps:normal;font-variant-numeric:normal;font-feature-settings:normal;text-align:start;writing-mode:lr-tb;text-anchor:start;stroke-width:0.79731554;stroke-miterlimit:100;stroke-dasharray:none"
         y="87.272995"
         x="-53.84864"
         id="tspan4875"
         sodipodi:role="line" /></text>
    <rect
       style="opacity:1;fill:#f9f9f9;fill-opacity:0.99469497;fill-rule:nonzero;stroke:#000000;stroke-width:0.79731548;stroke-linecap:round;stroke-linejoin:round;stroke-miterlimit:100;stroke-dasharray:none;stroke-opacity:1;paint-order:normal"
       id="rect1064"
       width="2.9868233"
       height="3.4008071"
       x="-55.030228"
       y="83.717262" />
    <text
       xml:space="preserve"
       style="font-style:normal;font-variant:normal;font-weight:normal;font-stretch:normal;font-size:2.3611412px;line-height:1.25;font-family:sans-serif;-inkscape-font-specification:'sans-serif, Normal';font-variant-ligatures:normal;font-variant-caps:normal;font-variant-numeric:normal;font-feature-settings:normal;text-align:start;letter-spacing:0px;word-spacing:0px;writing-mode:lr-tb;text-anchor:start;fill:#000000;fill-opacity:1;stroke:none;stroke-width:0.79731554;stroke-miterlimit:100;stroke-dasharray:none"
       x="-53.8909"
       y="86.95002"
       id="text1068"
       transform="scale(1.0078652,0.99219618)"><tspan
         sodipodi:role="line"
         id="tspan1066"
         x="-53.8909"
         y="86.95002"
         style="font-style:normal;font-variant:normal;font-weight:normal;font-stretch:normal;font-size:2.3611412px;font-family:sans-serif;-inkscape-font-specification:'sans-serif, Normal';font-variant-ligatures:normal;font-variant-caps:normal;font-variant-numeric:normal;font-feature-settings:normal;text-align:start;writing-mode:lr-tb;text-anchor:start;stroke-width:0.79731554;stroke-miterlimit:100;stroke-dasharray:none">1</tspan></text>
    <text
       transform="scale(1.0078652,0.99219618)"
       id="text1072"
       y="86.95002"
       x="-53.8909"
       style="font-style:normal;font-variant:normal;font-weight:normal;font-stretch:normal;font-size:2.3611412px;line-height:1.25;font-family:sans-serif;-inkscape-font-specification:'sans-serif, Normal';font-variant-ligatures:normal;font-variant-caps:normal;font-variant-numeric:normal;font-feature-settings:normal;text-align:start;letter-spacing:0px;word-spacing:0px;writing-mode:lr-tb;text-anchor:start;fill:#000000;fill-opacity:1;stroke:none;stroke-width:0.79731554;stroke-miterlimit:100;stroke-dasharray:none"
       xml:space="preserve"><tspan
         style="font-style:normal;font-variant:normal;font-weight:normal;font-stretch:normal;font-size:2.3611412px;font-family:sans-serif;-inkscape-font-specification:'sans-serif, Normal';font-variant-ligatures:normal;font-variant-caps:normal;font-variant-numeric:normal;font-feature-settings:normal;text-align:start;writing-mode:lr-tb;text-anchor:start;stroke-width:0.79731554;stroke-miterlimit:100;stroke-dasharray:none"
         y="86.95002"
         x="-53.8909"
         id="tspan1070"
         sodipodi:role="line">1</tspan></text>
    <rect
       y="83.717262"
       x="-55.030228"
       height="3.4008071"
       width="2.9868233"
       id="rect1074"
       style="opacity:1;fill:#f9f9f9;fill-opacity:0.99469497;fill-rule:nonzero;stroke:#000000;stroke-width:0.79731548;stroke-linecap:round;stroke-linejoin:round;stroke-miterlimit:100;stroke-dasharray:none;stroke-opacity:1;paint-order:normal" />
    <text
       transform="scale(1.0078652,0.99219618)"
       id="text1078"
       y="86.95002"
       x="-53.8909"
       style="font-style:normal;font-variant:normal;font-weight:normal;font-stretch:normal;font-size:2.36112905px;line-height:1.25;font-family:sans-serif;-inkscape-font-specification:'sans-serif, Normal';font-variant-ligatures:normal;font-variant-caps:normal;font-variant-numeric:normal;font-feature-settings:normal;text-align:start;letter-spacing:0px;word-spacing:0px;writing-mode:lr-tb;text-anchor:start;fill:#000000;fill-opacity:1;stroke:none;stroke-width:0.79731554;stroke-miterlimit:100;stroke-dasharray:none"
       xml:space="preserve"><tspan
         sodipodi:role="line"
         id="tspan1150"
         x="-53.8909"
         y="86.95002"
         style="stroke-width:0.79731554">6</tspan></text>
    <rect
       y="87.118065"
       x="-55.030228"
       height="3.4008071"
       width="2.9868233"
       id="rect1084"
       style="opacity:1;fill:#f9f9f9;fill-opacity:0.99469497;fill-rule:nonzero;stroke:#000000;stroke-width:0.79731548;stroke-linecap:round;stroke-linejoin:round;stroke-miterlimit:100;stroke-dasharray:none;stroke-opacity:1;paint-order:normal" />
    <text
       transform="scale(1.0078652,0.99219618)"
       id="text1088"
       y="90.377579"
       x="-53.8909"
       style="font-style:normal;font-variant:normal;font-weight:normal;font-stretch:normal;font-size:2.3611412px;line-height:1.25;font-family:sans-serif;-inkscape-font-specification:'sans-serif, Normal';font-variant-ligatures:normal;font-variant-caps:normal;font-variant-numeric:normal;font-feature-settings:normal;text-align:start;letter-spacing:0px;word-spacing:0px;writing-mode:lr-tb;text-anchor:start;fill:#000000;fill-opacity:1;stroke:none;stroke-width:0.79731554;stroke-miterlimit:100;stroke-dasharray:none"
       xml:space="preserve"><tspan
         style="font-style:normal;font-variant:normal;font-weight:normal;font-stretch:normal;font-size:2.3611412px;font-family:sans-serif;-inkscape-font-specification:'sans-serif, Normal';font-variant-ligatures:normal;font-variant-caps:normal;font-variant-numeric:normal;font-feature-settings:normal;text-align:start;writing-mode:lr-tb;text-anchor:start;stroke-width:0.79731554;stroke-miterlimit:100;stroke-dasharray:none"
         y="90.377579"
         x="-53.8909"
         id="tspan1086"
         sodipodi:role="line">1</tspan></text>
    <text
       xml:space="preserve"
       style="font-style:normal;font-variant:normal;font-weight:normal;font-stretch:normal;font-size:2.3611412px;line-height:1.25;font-family:sans-serif;-inkscape-font-specification:'sans-serif, Normal';font-variant-ligatures:normal;font-variant-caps:normal;font-variant-numeric:normal;font-feature-settings:normal;text-align:start;letter-spacing:0px;word-spacing:0px;writing-mode:lr-tb;text-anchor:start;fill:#000000;fill-opacity:1;stroke:none;stroke-width:0.79731554;stroke-miterlimit:100;stroke-dasharray:none"
       x="-53.8909"
       y="90.377579"
       id="text1092"
       transform="scale(1.0078652,0.99219618)"><tspan
         sodipodi:role="line"
         id="tspan1090"
         x="-53.8909"
         y="90.377579"
         style="font-style:normal;font-variant:normal;font-weight:normal;font-stretch:normal;font-size:2.3611412px;font-family:sans-serif;-inkscape-font-specification:'sans-serif, Normal';font-variant-ligatures:normal;font-variant-caps:normal;font-variant-numeric:normal;font-feature-settings:normal;text-align:start;writing-mode:lr-tb;text-anchor:start;stroke-width:0.79731554;stroke-miterlimit:100;stroke-dasharray:none">1</tspan></text>
    <rect
       style="opacity:1;fill:#f9f9f9;fill-opacity:0.99469497;fill-rule:nonzero;stroke:#000000;stroke-width:0.79731548;stroke-linecap:round;stroke-linejoin:round;stroke-miterlimit:100;stroke-dasharray:none;stroke-opacity:1;paint-order:normal"
       id="rect1094"
       width="2.9868233"
       height="3.4008071"
       x="-55.030228"
       y="87.118065" />
    <text
       xml:space="preserve"
       style="font-style:normal;font-variant:normal;font-weight:normal;font-stretch:normal;font-size:2.36112905px;line-height:1.25;font-family:sans-serif;-inkscape-font-specification:'sans-serif, Normal';font-variant-ligatures:normal;font-variant-caps:normal;font-variant-numeric:normal;font-feature-settings:normal;text-align:start;letter-spacing:0px;word-spacing:0px;writing-mode:lr-tb;text-anchor:start;fill:#000000;fill-opacity:1;stroke:none;stroke-width:0.79731554;stroke-miterlimit:100;stroke-dasharray:none"
       x="-53.8909"
       y="90.377579"
       id="text1098"
       transform="scale(1.0078652,0.99219618)"><tspan
         sodipodi:role="line"
         id="tspan1152"
         x="-53.8909"
         y="90.377579"
         style="stroke-width:0.79731554">7</tspan></text>
    <rect
       style="opacity:1;fill:#f9f9f9;fill-opacity:0.99469497;fill-rule:nonzero;stroke:#000000;stroke-width:0.79731548;stroke-linecap:round;stroke-linejoin:round;stroke-miterlimit:100;stroke-dasharray:none;stroke-opacity:1;paint-order:normal"
       id="rect1100"
       width="2.9868233"
       height="3.4008071"
       x="-55.030228"
       y="90.518883" />
    <text
       xml:space="preserve"
       style="font-style:normal;font-variant:normal;font-weight:normal;font-stretch:normal;font-size:2.3611412px;line-height:1.25;font-family:sans-serif;-inkscape-font-specification:'sans-serif, Normal';font-variant-ligatures:normal;font-variant-caps:normal;font-variant-numeric:normal;font-feature-settings:normal;text-align:start;letter-spacing:0px;word-spacing:0px;writing-mode:lr-tb;text-anchor:start;fill:#000000;fill-opacity:1;stroke:none;stroke-width:0.79731554;stroke-miterlimit:100;stroke-dasharray:none"
       x="-53.8909"
       y="93.80513"
       id="text1104"
       transform="scale(1.0078652,0.99219618)"><tspan
         sodipodi:role="line"
         id="tspan1102"
         x="-53.8909"
         y="93.80513"
         style="font-style:normal;font-variant:normal;font-weight:normal;font-stretch:normal;font-size:2.3611412px;font-family:sans-serif;-inkscape-font-specification:'sans-serif, Normal';font-variant-ligatures:normal;font-variant-caps:normal;font-variant-numeric:normal;font-feature-settings:normal;text-align:start;writing-mode:lr-tb;text-anchor:start;stroke-width:0.79731554;stroke-miterlimit:100;stroke-dasharray:none">1</tspan></text>
    <text
       transform="scale(1.0078652,0.99219618)"
       id="text1108"
       y="93.80513"
       x="-53.8909"
       style="font-style:normal;font-variant:normal;font-weight:normal;font-stretch:normal;font-size:2.3611412px;line-height:1.25;font-family:sans-serif;-inkscape-font-specification:'sans-serif, Normal';font-variant-ligatures:normal;font-variant-caps:normal;font-variant-numeric:normal;font-feature-settings:normal;text-align:start;letter-spacing:0px;word-spacing:0px;writing-mode:lr-tb;text-anchor:start;fill:#000000;fill-opacity:1;stroke:none;stroke-width:0.79731554;stroke-miterlimit:100;stroke-dasharray:none"
       xml:space="preserve"><tspan
         style="font-style:normal;font-variant:normal;font-weight:normal;font-stretch:normal;font-size:2.3611412px;font-family:sans-serif;-inkscape-font-specification:'sans-serif, Normal';font-variant-ligatures:normal;font-variant-caps:normal;font-variant-numeric:normal;font-feature-settings:normal;text-align:start;writing-mode:lr-tb;text-anchor:start;stroke-width:0.79731554;stroke-miterlimit:100;stroke-dasharray:none"
         y="93.80513"
         x="-53.8909"
         id="tspan1106"
         sodipodi:role="line">1</tspan></text>
    <rect
       y="90.518883"
       x="-55.030228"
       height="3.4008071"
       width="2.9868233"
       id="rect1110"
       style="opacity:1;fill:#f9f9f9;fill-opacity:0.99469497;fill-rule:nonzero;stroke:#000000;stroke-width:0.79731548;stroke-linecap:round;stroke-linejoin:round;stroke-miterlimit:100;stroke-dasharray:none;stroke-opacity:1;paint-order:normal" />
    <text
       transform="scale(1.0078652,0.99219618)"
       id="text1114"
       y="93.80513"
       x="-53.8909"
       style="font-style:normal;font-variant:normal;font-weight:normal;font-stretch:normal;font-size:2.36112905px;line-height:1.25;font-family:sans-serif;-inkscape-font-specification:'sans-serif, Normal';font-variant-ligatures:normal;font-variant-caps:normal;font-variant-numeric:normal;font-feature-settings:normal;text-align:start;letter-spacing:0px;word-spacing:0px;writing-mode:lr-tb;text-anchor:start;fill:#000000;fill-opacity:1;stroke:none;stroke-width:0.79731554;stroke-miterlimit:100;stroke-dasharray:none"
       xml:space="preserve"><tspan
         sodipodi:role="line"
         id="tspan1154"
         x="-53.8909"
         y="93.80513"
         style="stroke-width:0.79731554">8</tspan></text>
    <rect
       y="93.919685"
       x="-55.030228"
       height="3.4008071"
       width="2.9868233"
       id="rect1116"
       style="opacity:1;fill:#f9f9f9;fill-opacity:0.99469497;fill-rule:nonzero;stroke:#000000;stroke-width:0.79731548;stroke-linecap:round;stroke-linejoin:round;stroke-miterlimit:100;stroke-dasharray:none;stroke-opacity:1;paint-order:normal" />
    <text
       transform="scale(1.0078652,0.99219618)"
       id="text1120"
       y="97.232697"
       x="-53.8909"
       style="font-style:normal;font-variant:normal;font-weight:normal;font-stretch:normal;font-size:2.3611412px;line-height:1.25;font-family:sans-serif;-inkscape-font-specification:'sans-serif, Normal';font-variant-ligatures:normal;font-variant-caps:normal;font-variant-numeric:normal;font-feature-settings:normal;text-align:start;letter-spacing:0px;word-spacing:0px;writing-mode:lr-tb;text-anchor:start;fill:#000000;fill-opacity:1;stroke:none;stroke-width:0.79731554;stroke-miterlimit:100;stroke-dasharray:none"
       xml:space="preserve"><tspan
         style="font-style:normal;font-variant:normal;font-weight:normal;font-stretch:normal;font-size:2.3611412px;font-family:sans-serif;-inkscape-font-specification:'sans-serif, Normal';font-variant-ligatures:normal;font-variant-caps:normal;font-variant-numeric:normal;font-feature-settings:normal;text-align:start;writing-mode:lr-tb;text-anchor:start;stroke-width:0.79731554;stroke-miterlimit:100;stroke-dasharray:none"
         y="97.232697"
         x="-53.8909"
         id="tspan1118"
         sodipodi:role="line">1</tspan></text>
    <text
       xml:space="preserve"
       style="font-style:normal;font-variant:normal;font-weight:normal;font-stretch:normal;font-size:2.3611412px;line-height:1.25;font-family:sans-serif;-inkscape-font-specification:'sans-serif, Normal';font-variant-ligatures:normal;font-variant-caps:normal;font-variant-numeric:normal;font-feature-settings:normal;text-align:start;letter-spacing:0px;word-spacing:0px;writing-mode:lr-tb;text-anchor:start;fill:#000000;fill-opacity:1;stroke:none;stroke-width:0.79731554;stroke-miterlimit:100;stroke-dasharray:none"
       x="-53.8909"
       y="97.232697"
       id="text1124"
       transform="scale(1.0078652,0.99219618)"><tspan
         sodipodi:role="line"
         id="tspan1122"
         x="-53.8909"
         y="97.232697"
         style="font-style:normal;font-variant:normal;font-weight:normal;font-stretch:normal;font-size:2.3611412px;font-family:sans-serif;-inkscape-font-specification:'sans-serif, Normal';font-variant-ligatures:normal;font-variant-caps:normal;font-variant-numeric:normal;font-feature-settings:normal;text-align:start;writing-mode:lr-tb;text-anchor:start;stroke-width:0.79731554;stroke-miterlimit:100;stroke-dasharray:none">1</tspan></text>
    <rect
       style="opacity:1;fill:#f9f9f9;fill-opacity:0.99469497;fill-rule:nonzero;stroke:#000000;stroke-width:0.79731548;stroke-linecap:round;stroke-linejoin:round;stroke-miterlimit:100;stroke-dasharray:none;stroke-opacity:1;paint-order:normal"
       id="rect1126"
       width="2.9868233"
       height="3.4008071"
       x="-55.030228"
       y="93.919685" />
    <text
       xml:space="preserve"
       style="font-style:normal;font-variant:normal;font-weight:normal;font-stretch:normal;font-size:2.36112905px;line-height:1.25;font-family:sans-serif;-inkscape-font-specification:'sans-serif, Normal';font-variant-ligatures:normal;font-variant-caps:normal;font-variant-numeric:normal;font-feature-settings:normal;text-align:start;letter-spacing:0px;word-spacing:0px;writing-mode:lr-tb;text-anchor:start;fill:#000000;fill-opacity:1;stroke:none;stroke-width:0.79731554;stroke-miterlimit:100;stroke-dasharray:none"
       x="-53.8909"
       y="97.232697"
       id="text1130"
       transform="scale(1.0078652,0.99219618)"><tspan
         sodipodi:role="line"
         id="tspan1156"
         x="-53.8909"
         y="97.232697"
         style="stroke-width:0.79731554">9</tspan></text>
    <rect
       style="opacity:1;fill:#f9f9f9;fill-opacity:0.99469497;fill-rule:nonzero;stroke:#000000;stroke-width:0.79731548;stroke-linecap:round;stroke-linejoin:round;stroke-miterlimit:100;stroke-dasharray:none;stroke-opacity:1;paint-order:normal"
       id="rect1132"
       width="2.9868233"
       height="3.4008071"
       x="-55.030228"
       y="97.32048" />
    <text
       xml:space="preserve"
       style="font-style:normal;font-variant:normal;font-weight:normal;font-stretch:normal;font-size:2.3611412px;line-height:1.25;font-family:sans-serif;-inkscape-font-specification:'sans-serif, Normal';font-variant-ligatures:normal;font-variant-caps:normal;font-variant-numeric:normal;font-feature-settings:normal;text-align:start;letter-spacing:0px;word-spacing:0px;writing-mode:lr-tb;text-anchor:start;fill:#000000;fill-opacity:1;stroke:none;stroke-width:0.79731554;stroke-miterlimit:100;stroke-dasharray:none"
       x="-53.8909"
       y="100.66023"
       id="text1136"
       transform="scale(1.0078652,0.99219618)"><tspan
         sodipodi:role="line"
         id="tspan1134"
         x="-53.8909"
         y="100.66023"
         style="font-style:normal;font-variant:normal;font-weight:normal;font-stretch:normal;font-size:2.3611412px;font-family:sans-serif;-inkscape-font-specification:'sans-serif, Normal';font-variant-ligatures:normal;font-variant-caps:normal;font-variant-numeric:normal;font-feature-settings:normal;text-align:start;writing-mode:lr-tb;text-anchor:start;stroke-width:0.79731554;stroke-miterlimit:100;stroke-dasharray:none">1</tspan></text>
    <text
       transform="scale(1.0078652,0.99219618)"
       id="text1140"
       y="100.66023"
       x="-53.8909"
       style="font-style:normal;font-variant:normal;font-weight:normal;font-stretch:normal;font-size:2.3611412px;line-height:1.25;font-family:sans-serif;-inkscape-font-specification:'sans-serif, Normal';font-variant-ligatures:normal;font-variant-caps:normal;font-variant-numeric:normal;font-feature-settings:normal;text-align:start;letter-spacing:0px;word-spacing:0px;writing-mode:lr-tb;text-anchor:start;fill:#000000;fill-opacity:1;stroke:none;stroke-width:0.79731554;stroke-miterlimit:100;stroke-dasharray:none"
       xml:space="preserve"><tspan
         style="font-style:normal;font-variant:normal;font-weight:normal;font-stretch:normal;font-size:2.3611412px;font-family:sans-serif;-inkscape-font-specification:'sans-serif, Normal';font-variant-ligatures:normal;font-variant-caps:normal;font-variant-numeric:normal;font-feature-settings:normal;text-align:start;writing-mode:lr-tb;text-anchor:start;stroke-width:0.79731554;stroke-miterlimit:100;stroke-dasharray:none"
         y="100.66023"
         x="-53.8909"
         id="tspan1138"
         sodipodi:role="line">1</tspan></text>
    <rect
       y="97.32048"
       x="-56.599155"
       height="3.4008071"
       width="4.5557532"
       id="rect1142"
       style="opacity:1;fill:#f9f9f9;fill-opacity:0.99469497;fill-rule:nonzero;stroke:#000000;stroke-width:0.79731548;stroke-linecap:round;stroke-linejoin:round;stroke-miterlimit:100;stroke-dasharray:none;stroke-opacity:1;paint-order:normal" />
    <text
       transform="scale(1.0078652,0.99219618)"
       id="text1146"
       y="100.65919"
       x="-55.439354"
       style="font-style:normal;font-variant:normal;font-weight:normal;font-stretch:normal;font-size:2.36112905px;line-height:1.25;font-family:sans-serif;-inkscape-font-specification:'sans-serif, Normal';font-variant-ligatures:normal;font-variant-caps:normal;font-variant-numeric:normal;font-feature-settings:normal;text-align:start;letter-spacing:0px;word-spacing:0px;writing-mode:lr-tb;text-anchor:start;fill:#000000;fill-opacity:1;stroke:none;stroke-width:0.79731554;stroke-miterlimit:100;stroke-dasharray:none"
       xml:space="preserve"><tspan
         sodipodi:role="line"
         id="tspan1158"
         x="-55.439354"
         y="100.65919"
         style="stroke-width:0.79731554">10</tspan></text>
    <rect
       y="100.76474"
       x="-55.030228"
       height="3.4008071"
       width="2.9868233"
       id="rect1217"
       style="opacity:1;fill:#f9f9f9;fill-opacity:0.99469497;fill-rule:nonzero;stroke:#000000;stroke-width:0.79731548;stroke-linecap:round;stroke-linejoin:round;stroke-miterlimit:100;stroke-dasharray:none;stroke-opacity:1;paint-order:normal" />
    <text
       transform="scale(1.0078652,0.99219618)"
       id="text1221"
       y="104.13157"
       x="-53.8909"
       style="font-style:normal;font-variant:normal;font-weight:normal;font-stretch:normal;font-size:2.3611412px;line-height:1.25;font-family:sans-serif;-inkscape-font-specification:'sans-serif, Normal';font-variant-ligatures:normal;font-variant-caps:normal;font-variant-numeric:normal;font-feature-settings:normal;text-align:start;letter-spacing:0px;word-spacing:0px;writing-mode:lr-tb;text-anchor:start;fill:#000000;fill-opacity:1;stroke:none;stroke-width:0.79731554;stroke-miterlimit:100;stroke-dasharray:none"
       xml:space="preserve"><tspan
         style="font-style:normal;font-variant:normal;font-weight:normal;font-stretch:normal;font-size:2.3611412px;font-family:sans-serif;-inkscape-font-specification:'sans-serif, Normal';font-variant-ligatures:normal;font-variant-caps:normal;font-variant-numeric:normal;font-feature-settings:normal;text-align:start;writing-mode:lr-tb;text-anchor:start;stroke-width:0.79731554;stroke-miterlimit:100;stroke-dasharray:none"
         y="104.13157"
         x="-53.8909"
         id="tspan1219"
         sodipodi:role="line">1</tspan></text>
    <text
       xml:space="preserve"
       style="font-style:normal;font-variant:normal;font-weight:normal;font-stretch:normal;font-size:2.3611412px;line-height:1.25;font-family:sans-serif;-inkscape-font-specification:'sans-serif, Normal';font-variant-ligatures:normal;font-variant-caps:normal;font-variant-numeric:normal;font-feature-settings:normal;text-align:start;letter-spacing:0px;word-spacing:0px;writing-mode:lr-tb;text-anchor:start;fill:#000000;fill-opacity:1;stroke:none;stroke-width:0.79731554;stroke-miterlimit:100;stroke-dasharray:none"
       x="-53.8909"
       y="104.13157"
       id="text1225"
       transform="scale(1.0078652,0.99219618)"><tspan
         sodipodi:role="line"
         id="tspan1223"
         x="-53.8909"
         y="104.13157"
         style="font-style:normal;font-variant:normal;font-weight:normal;font-stretch:normal;font-size:2.3611412px;font-family:sans-serif;-inkscape-font-specification:'sans-serif, Normal';font-variant-ligatures:normal;font-variant-caps:normal;font-variant-numeric:normal;font-feature-settings:normal;text-align:start;writing-mode:lr-tb;text-anchor:start;stroke-width:0.79731554;stroke-miterlimit:100;stroke-dasharray:none">1</tspan></text>
    <rect
       style="opacity:1;fill:#f9f9f9;fill-opacity:0.99469497;fill-rule:nonzero;stroke:#000000;stroke-width:0.79731548;stroke-linecap:round;stroke-linejoin:round;stroke-miterlimit:100;stroke-dasharray:none;stroke-opacity:1;paint-order:normal"
       id="rect1227"
       width="4.5557532"
       height="3.4008071"
       x="-56.599155"
       y="100.76474" />
    <text
       xml:space="preserve"
       style="font-style:normal;font-variant:normal;font-weight:normal;font-stretch:normal;font-size:2.36112905px;line-height:1.25;font-family:sans-serif;-inkscape-font-specification:'sans-serif, Normal';font-variant-ligatures:normal;font-variant-caps:normal;font-variant-numeric:normal;font-feature-settings:normal;text-align:start;letter-spacing:0px;word-spacing:0px;writing-mode:lr-tb;text-anchor:start;fill:#000000;fill-opacity:1;stroke:none;stroke-width:0.79731554;stroke-miterlimit:100;stroke-dasharray:none"
       x="-55.439354"
       y="104.13052"
       id="text1231"
       transform="scale(1.0078652,0.99219618)"><tspan
         sodipodi:role="line"
         id="tspan1233"
         x="-55.439354"
         y="104.13052"
         style="stroke-width:0.79731554">11</tspan></text>
  </g>
</svg>
